…
    date

> if (!interactive()) options(width = 200)
> enc <- getOption("encoding")
> options(encoding = "iso-8859-1")
> 
> 
> # Merging Data ------------------------------------------------------------
> 
> genotypes <- read.genalex(here::here("data/data.csv"), ploidy = 1) %>% 
+   genind2df() %>%
+   rownames_to_column("AP-GenoID") %>%
+   as_tibble()
> genotypes
# A tibble: 95 x 13
   `AP-GenoID` pop                         `5-2` `6-2` `7-2` `8-3` `9-2` `12-2` `20-3` `55-4` `110-4` `114-4` `17-3`
   <chr>       <fct>                       <chr> <chr> <chr> <chr> <chr> <chr>  <chr>  <chr>  <chr>   <chr>   <chr> 
 1 1           South America_Brazil_Góias  336   505   <NA>  256   371   228    283    207    381     367     354   
 2 1010        South America_Brazil_Paraná 340   505   172   264   360   230    292    223    <NA>    351     360   
 3 1011        South America_Brazil_Paraná 332   505   174   264   371   230    292    207    385     367     360   
 4 1012        South America_Brazil_Paraná 334   505   174   268   371   228    292    207    381     351     360   
 5 1013        South America_Brazil_Paraná 332   505   182   268   375   228    292    207    381     351     360   
 6 1014        South America_Brazil_Paraná 332   495   182   268   388   228    292    207    381     367     360   
 7 1015        South America_Brazil_Góias  332   505   174   264   371   228    292    207    385     351     354   
 8 1016        South America_Brazil_Góias  332   505   174   264   370   230    292    183    385     351     354   
 9 1017        South America_Brazil_Paraná 332   505   174   264   388   230    292    207    <NA>    351     360   
10 1018        South America_Brazil_Góias  332   505   174   264   371   230    <NA>   207    385     351     360   
# ... with 85 more rows
…
> # way I've dealt with this: import as dates and then convert what didn't parse
> # into the number of days since 1899-12-30
> metadata  <- read_excel(here::here("data/MasterGenoMCGDataBrazilPaper2018.xlsx"), 
+                         col_types = "text",
+                         na = c("NA", "")) %>%
+   mutate(date = as.Date(parse_date_time(`JRS-Collection Date`, c("mdy", "y")))) %>%
+   mutate(date = case_when(
+     is.na(date) ~ as.Date("1899-12-30") + days(as.integer(`JRS-Collection Date`)),
+     TRUE        ~ date
+   ))
Warning messages:
1:  11 failed to parse. 
2: In period(day = x) : NAs introduced by coercion
> metadata
# A tibble: 95 x 11
   MCG   `AP-GenoID` InventoryID `in-JRS-collection` `AP-Continent_Country_Population`    `JRS-Isolate #` `JRS-Collection Date` `JRS-Source (Host)` `JRS-Geographical Location` `JRS-Notes`  date      
   <chr> <chr>       <chr>       <chr>               <chr>                                <chr>           <chr>                 <chr>               <chr>                       <chr>        <date>    
 1 A     143         143         TRUE                North America_United States_Nebraska 143             1977                  Soybeans            Greeley, CO                 "Called \"C… 1977-01-01
 2 K     202         202         TRUE                North America_United States_Nebraska 202             33117                 Soybean             Ithaca, NE                  Hobbit       1990-09-01
 3 K     264         264         TRUE                North America_United States_Nebraska 264             34516                 Soybeans            Platte Co., NE              0            1994-07-01
 4 H     265         265         TRUE                North America_United States_Nebraska 265             34547                 Soybeans            Tekamah, Burt Co., NE       0            1994-08-01
 5 A     266         266         TRUE                North America_United States_Nebraska 266             34547                 Soybeans            Saunders Co., NE            0            1994-08-01
 6 I     267         267         TRUE                North America_United States_Nebraska 267             34578                 Soybeans            Bellwood, NE                ICI-297      1994-09-01
 7 J     268         268         TRUE                North America_United States_Nebraska 268             34578                 Soybeans            Herman, NE                  NK-2939      1994-09-01
 8 A     276         276         TRUE                North America_United States_Nebraska 276             35309                 Soybean             Ord, NE                     30 scleroti… 1996-09-01
 9 K     289         289         TRUE                North America_United States_Nebraska 289             1996                  Soybeans            UNL PN, Lincoln, NE         "From Les C… 1996-01-01
10 C     293A        293         FALSE               South America_Argentina_Argentina    293             1996                  Soybean Cull        Argentina                   Juan C. Sua… 1996-01-01
# ... with 85 more rows
…
